…
``` r
# Find high-value outliers
outliers <- df %>% filter(Contribution_Amount > quantile(Contribution_Amount, 0.99))
print(outliers)
```

    ## # A tibble: 561 × 15
    ##    Cycle FECRecNo PACID     CID      Candidate_Name_Party Party Senator_ID Vote 
    ##    <dbl>    <dbl> <chr>     <chr>    <chr>                <chr> <chr>      <chr>
    ##  1  2016  4.10e18 C90005786 N000371… Catherine Cortez Ma… D     Catherine… Nay  
    ##  2  2016  2.04e18 C00492785 N000330… Ted Cruz             R     Ted Cruz   Yea  
    ##  3  2016  2.08e18 C00496075 N000308… Rand Paul            R     Rand Paul  Yea  
    ##  4  2016  2.11e18 C00476374 N000306… Todd Young           R     Todd Young Yea  
    ##  5  2016  4.10e18 C90013145 N000064… John McCain          R     John McCa… Not …
    ##  6  2016  4.07e18 C00525899 N000308… Rand Paul            R     Rand Paul  Yea  
    ##  7  2016  4.04e18 C00592337 N000330… Ted Cruz             R     Ted Cruz   Yea  
    ##  8  2016  4.12e18 C00573733 N000099… Lindsey Graham       R     Lindsey G… Yea  
    ##  9  2016  4.12e18 C00573733 N000099… Lindsey Graham       R     Lindsey G… Yea  
    ## 10  2016  4.12e18 C00573733 N000099… Lindsey Graham       R     Lindsey G… Yea  
    ## # ℹ 551 more rows
    ## # ℹ 7 more variables: Contribution_Amount <dbl>, date <dttm>, real_code <chr>,
    ## #   PAC_Name <chr>, Type <chr>, DI <chr>, `FECCandID F` <chr>
…
